module gitlab.com/redshirt-mandalorians/soundbox

go 1.12

require (
	fyne.io/fyne v0.0.0-20190310210556-bce3d14f73c3
	github.com/go-gl/gl v0.0.0-20181026044259-55b76b7df9d2 // indirect
	github.com/go-gl/glfw v0.0.0-20190217072633-93b30450e032 // indirect
	github.com/goki/freetype v0.0.0-20181231101311-fa8a33aabaff // indirect
	github.com/srwiley/oksvg v0.0.0-20190105194046-ccbc7673cdf3 // indirect
	github.com/srwiley/rasterx v0.0.0-20181219215540-696f7edb7a7e // indirect
	golang.org/x/image v0.0.0-20190227222117-0694c2d4d067 // indirect
	golang.org/x/net v0.0.0-20190311183353-d8887717615a // indirect
)
